^C:\USERS\TEMP.IAM\SOURCE\REPOS\TREES_ROUND2_ELECTRIC_BUGALOO\TREES_ROUND2_ELECTRIC_BUGALOO\STDAFX.CPP
C:\USERS\TEMP.IAM\SOURCE\REPOS\TREES_ROUND2_ELECTRIC_BUGALOO\TREES_ROUND2_ELECTRIC_BUGALOO\DEBUG\TREES_ROUND2_ELECTRIC_BUGALOO.PCH
C:\USERS\TEMP.IAM\SOURCE\REPOS\TREES_ROUND2_ELECTRIC_BUGALOO\TREES_ROUND2_ELECTRIC_BUGALOO\DEBUG\VC141.PDB
C:\USERS\TEMP.IAM\SOURCE\REPOS\TREES_ROUND2_ELECTRIC_BUGALOO\TREES_ROUND2_ELECTRIC_BUGALOO\DEBUG\VC141.IDB
C:\USERS\TEMP.IAM\SOURCE\REPOS\TREES_ROUND2_ELECTRIC_BUGALOO\TREES_ROUND2_ELECTRIC_BUGALOO\DEBUG\STDAFX.OBJ
^C:\USERS\TEMP.IAM\SOURCE\REPOS\TREES_ROUND2_ELECTRIC_BUGALOO\TREES_ROUND2_ELECTRIC_BUGALOO\GAME_MANAGER.CPP|C:\USERS\TEMP.IAM\SOURCE\REPOS\TREES_ROUND2_ELECTRIC_BUGALOO\TREES_ROUND2_ELECTRIC_BUGALOO\ROLL_MANAGER.CPP|C:\USERS\TEMP.IAM\SOURCE\REPOS\TREES_ROUND2_ELECTRIC_BUGALOO\TREES_ROUND2_ELECTRIC_BUGALOO\TREES_ROUND2_ELECTRIC_BUGALOO.CPP|C:\USERS\TEMP.IAM\SOURCE\REPOS\TREES_ROUND2_ELECTRIC_BUGALOO\TREES_ROUND2_ELECTRIC_BUGALOO\TURN_MANAGER.CPP
C:\USERS\TEMP.IAM\SOURCE\REPOS\TREES_ROUND2_ELECTRIC_BUGALOO\TREES_ROUND2_ELECTRIC_BUGALOO\DEBUG\VC141.PDB
C:\USERS\TEMP.IAM\SOURCE\REPOS\TREES_ROUND2_ELECTRIC_BUGALOO\TREES_ROUND2_ELECTRIC_BUGALOO\DEBUG\VC141.IDB
C:\USERS\TEMP.IAM\SOURCE\REPOS\TREES_ROUND2_ELECTRIC_BUGALOO\TREES_ROUND2_ELECTRIC_BUGALOO\DEBUG\ROLL_MANAGER.OBJ
C:\USERS\TEMP.IAM\SOURCE\REPOS\TREES_ROUND2_ELECTRIC_BUGALOO\TREES_ROUND2_ELECTRIC_BUGALOO\DEBUG\TREES_ROUND2_ELECTRIC_BUGALOO.OBJ
^C:\USERS\TEMP.IAM\SOURCE\REPOS\TREES_ROUND2_ELECTRIC_BUGALOO\TREES_ROUND2_ELECTRIC_BUGALOO\GAME_MANAGER.CPP
C:\USERS\TEMP.IAM\SOURCE\REPOS\TREES_ROUND2_ELECTRIC_BUGALOO\TREES_ROUND2_ELECTRIC_BUGALOO\DEBUG\VC141.PDB
^C:\USERS\TEMP.IAM\SOURCE\REPOS\TREES_ROUND2_ELECTRIC_BUGALOO\TREES_ROUND2_ELECTRIC_BUGALOO\ROLL_MANAGER.CPP
C:\USERS\TEMP.IAM\SOURCE\REPOS\TREES_ROUND2_ELECTRIC_BUGALOO\TREES_ROUND2_ELECTRIC_BUGALOO\DEBUG\VC141.PDB
^C:\USERS\TEMP.IAM\SOURCE\REPOS\TREES_ROUND2_ELECTRIC_BUGALOO\TREES_ROUND2_ELECTRIC_BUGALOO\TREES_ROUND2_ELECTRIC_BUGALOO.CPP
C:\USERS\TEMP.IAM\SOURCE\REPOS\TREES_ROUND2_ELECTRIC_BUGALOO\TREES_ROUND2_ELECTRIC_BUGALOO\DEBUG\VC141.PDB
^C:\USERS\TEMP.IAM\SOURCE\REPOS\TREES_ROUND2_ELECTRIC_BUGALOO\TREES_ROUND2_ELECTRIC_BUGALOO\TURN_MANAGER.CPP
C:\USERS\TEMP.IAM\SOURCE\REPOS\TREES_ROUND2_ELECTRIC_BUGALOO\TREES_ROUND2_ELECTRIC_BUGALOO\DEBUG\VC141.PDB
^C:\USERS\TEMP.IAM\SOURCE\REPOS\TREES_ROUND2_ELECTRIC_BUGALOO\TREES_ROUND2_ELECTRIC_BUGALOO\GAME_MANAGER.CPP|C:\USERS\TEMP.IAM\SOURCE\REPOS\TREES_ROUND2_ELECTRIC_BUGALOO\TREES_ROUND2_ELECTRIC_BUGALOO\TURN_MANAGER.CPP
C:\USERS\TEMP.IAM\SOURCE\REPOS\TREES_ROUND2_ELECTRIC_BUGALOO\TREES_ROUND2_ELECTRIC_BUGALOO\DEBUG\VC141.PDB
C:\USERS\TEMP.IAM\SOURCE\REPOS\TREES_ROUND2_ELECTRIC_BUGALOO\TREES_ROUND2_ELECTRIC_BUGALOO\DEBUG\VC141.IDB
C:\USERS\TEMP.IAM\SOURCE\REPOS\TREES_ROUND2_ELECTRIC_BUGALOO\TREES_ROUND2_ELECTRIC_BUGALOO\DEBUG\GAME_MANAGER.OBJ
C:\USERS\TEMP.IAM\SOURCE\REPOS\TREES_ROUND2_ELECTRIC_BUGALOO\TREES_ROUND2_ELECTRIC_BUGALOO\DEBUG\TURN_MANAGER.OBJ
